<?xml version="1.0" encoding="UTF-8"?>
<svg width="40px" height="26px" viewBox="0 0 40 26" version="1.1" xmlns="http://www.w3.org/2000/svg" xmlns:xlink="http://www.w3.org/1999/xlink">
    <title>Menu</title>
    <g id="Homepage-" stroke="none" stroke-width="1" fill="none" fill-rule="evenodd">
        <g id="Homepage-Design-(Pop-up)" transform="translate(-1820.000000, -77.000000)" fill="#DEDC20">
            <path d="M1860,97 L1860,103 L1820,103 L1820,97 L1860,97 Z M1860,87 L1860,93 L1820,93 L1820,87 L1860,87 Z M1860,77 L1860,83 L1820,83 L1820,77 L1860,77 Z" id="Menu"></path>
        </g>
    </g>
</svg>